%YAML 1.1
%TAG !u! tag:unity3d.com,2011:
--- !u!1 &4236345683008207317
GameObject:
  m_ObjectHideFlags: 0
  m_CorrespondingSourceObject: {fileID: 0}
  m_PrefabInstance: {fileID: 0}
  m_PrefabAsset: {fileID: 0}
  serializedVersion: 6
  m_Component:
  - component: {fileID: 4236345683008207315}
  - component: {fileID: 4236345683008207316}
  - component: {fileID: 2898762330030066432}
  m_Layer: 0
  m_Name: GameManager
  m_TagString: Untagged
  m_Icon: {fileID: 0}
  m_NavMeshLayer: 0
  m_StaticEditorFlags: 0
  m_IsActive: 1
--- !u!4 &4236345683008207315
Transform:
  m_ObjectHideFlags: 0
  m_CorrespondingSourceObject: {fileID: 0}
  m_PrefabInstance: {fileID: 0}
  m_PrefabAsset: {fileID: 0}
  m_GameObject: {fileID: 4236345683008207317}
  m_LocalRotation: {x: 0, y: 0, z: 0, w: 1}
  m_LocalPosition: {x: 0, y: 0, z: 0}
  m_LocalScale: {x: 1, y: 1, z: 1}
  m_Children: []
  m_Father: {fileID: 0}
  m_RootOrder: 0
  m_LocalEulerAnglesHint: {x: 0, y: 0, z: 0}
--- !u!114 &4236345683008207316
MonoBehaviour:
  m_ObjectHideFlags: 0
  m_CorrespondingSourceObject: {fileID: 0}
  m_PrefabInstance: {fileID: 0}
  m_PrefabAsset: {fileID: 0}
  m_GameObject: {fileID: 4236345683008207317}
  m_Enabled: 1
  m_EditorHideFlags: 0
  m_Script: {fileID: 11500000, guid: 57c9a1f4a9381265b821830c50785c52, type: 3}
  m_Name: 
  m_EditorClassIdentifier: 
  startDelay: 3
  endDelay: 3
  mainMenuSceneName: MainMenu
  highScoreRound: {fileID: 11400000, guid: fae94282f8283a27381e3246b036f0cc, type: 2}
  bestScore: {fileID: 11400000, guid: 0f5a77ab64801d8af8fad36cd10421fb, type: 2}
  score: {fileID: 11400000, guid: 0643b6f02f78c4ffdbe2ca9d67a6e2ea, type: 2}
  OnRoundStart: {fileID: 11400000, guid: 20ea019a8e51c6d1eb28cfe5ad0c7a64, type: 2}
  OnRoundPlay: {fileID: 11400000, guid: 4b2a25d542d60e96bb0b186e4cd73aad, type: 2}
  OnRoundEnd: {fileID: 11400000, guid: 16b8966341319548a8ba286d946b78bd, type: 2}
--- !u!114 &2898762330030066432
MonoBehaviour:
  m_ObjectHideFlags: 0
  m_CorrespondingSourceObject: {fileID: 0}
  m_PrefabInstance: {fileID: 0}
  m_PrefabAsset: {fileID: 0}
  m_GameObject: {fileID: 4236345683008207317}
  m_Enabled: 1
  m_EditorHideFlags: 0
  m_Script: {fileID: 11500000, guid: 41d0c032e804f7941a791d83c9f8efa7, type: 3}
  m_Name: 
  m_EditorClassIdentifier: 
  Event: {fileID: 11400000, guid: 2952c43f228a9d6c9a8cc0c834a8eaa6, type: 2}
  Response:
    m_PersistentCalls:
      m_Calls:
      - m_Target: {fileID: 4236345683008207316}
        m_MethodName: EndRound
        m_Mode: 1
        m_Arguments:
          m_ObjectArgument: {fileID: 0}
          m_ObjectArgumentAssemblyTypeName: UnityEngine.Object, UnityEngine
          m_IntArgument: 0
          m_FloatArgument: 0
          m_StringArgument: 
          m_BoolArgument: 0
        m_CallState: 2
